CPU Design Lab/lab/Lab_08_Pipeline_2025_release/Lab_08_Pipeline_2025_release/pipelinedcpu_v000/isim.log
ISim log file
Running: D:\2024-2025-2\Computer_System_Design_and_Implementation\Labs\Lab_08_Pipeline_2025\Lab_08_Pipeline_2025_release\pipelinedcpu_v000\pipelinedcpu_tb_fig8_18_isim_beh.exe -intstyle ise -gui -tclbatch isim.cmd -wdb D:/2024-2025-2/Computer_System_Design_and_Implementation/Labs/Lab_08_Pipeline_2025/Lab_08_Pipeline_2025_release/pipelinedcpu_v000/pipelinedcpu_tb_fig8_18_isim_beh.wdb 
ISim P.20131013 (signature 0x7708f090)
----------------------------------------------------------------------
WARNING:Security:42 - Your software subscription period has lapsed. Your current version of Xilinx tools will continue to function, but you no longer qualify for Xilinx software updates or new releases.


----------------------------------------------------------------------
This is a Full version of ISim.
Time resolution is 1 ps
# onerror resume
# wave add /
# run 3000 ns
Simulator is doing circuit initialization process.
Finished circuit initialization process.
                   0  pc=00000000  inst=00000000  ealu=00000000
                   4  pc=00000004  inst=3c010000  ealu=00000000
                   8  pc=00000008  inst=34240050  ealu=00000000
                  12  pc=0000000c  inst=0c00001b  ealu=00000050
                  16  pc=0000006c  inst=20050004  ealu=00000010
                  20  pc=00000070  inst=00004020  ealu=00000004
                  24  pc=00000074  inst=8c890000  ealu=00000000
                  28  pc=00000078  inst=01094020  ealu=00000050
                  32  pc=00000078  inst=01094020  ealu=00000000
                  36  pc=0000007c  inst=20a5ffff  ealu=000000a3
                  40  pc=00000080  inst=14a0fffc  ealu=00000003
                  44  pc=00000070  inst=20840004  ealu=00000003
                  48  pc=00000074  inst=8c890000  ealu=00000054
                  52  pc=00000078  inst=01094020  ealu=00000054
                  56  pc=00000078  inst=01094020  ealu=00000146
                  60  pc=0000007c  inst=20a5ffff  ealu=000000ca
                  64  pc=00000080  inst=14a0fffc  ealu=00000002
                  68  pc=00000070  inst=20840004  ealu=00000002
                  72  pc=00000074  inst=8c890000  ealu=00000058
                  76  pc=00000078  inst=01094020  ealu=00000058
                  80  pc=00000078  inst=01094020  ealu=000000f1
                  84  pc=0000007c  inst=20a5ffff  ealu=00000143
                  88  pc=00000080  inst=14a0fffc  ealu=00000001
                  92  pc=00000070  inst=20840004  ealu=00000001
                  96  pc=00000074  inst=8c890000  ealu=0000005c
                 100  pc=00000078  inst=01094020  ealu=0000005c
                 104  pc=00000078  inst=01094020  ealu=000001bc
                 108  pc=0000007c  inst=20a5ffff  ealu=00000258
                 112  pc=00000080  inst=14a0fffc  ealu=00000000
                 116  pc=00000084  inst=20840004  ealu=00000000
                 120  pc=00000088  inst=03e00008  ealu=00000060
                 124  pc=00000010  inst=00081000  ealu=00000010
                 128  pc=00000014  inst=ac820000  ealu=00000258
                 132  pc=00000018  inst=8c890000  ealu=00000060
                 136  pc=0000001c  inst=01244022  ealu=00000060
                 140  pc=0000001c  inst=01244022  ealu=000000b5
                 144  pc=00000020  inst=20050003  ealu=000001f8
                 148  pc=00000024  inst=20a5ffff  ealu=00000003
                 152  pc=00000028  inst=34a8ffff  ealu=00000002
                 156  pc=0000002c  inst=39085555  ealu=0000ffff
                 160  pc=00000030  inst=2009ffff  ealu=0000aaaa
                 164  pc=00000034  inst=312affff  ealu=ffffffff
                 168  pc=00000038  inst=01493025  ealu=0000ffff
                 172  pc=0000003c  inst=01494026  ealu=ffffffff
                 176  pc=00000040  inst=01463824  ealu=ffff0000
                 180  pc=00000044  inst=10a00003  ealu=0000ffff
                 184  pc=00000048  inst=00000000  ealu=00000002
                 188  pc=0000004c  inst=08000008  ealu=00000000
                 192  pc=00000020  inst=00000000  ealu=00000000
                 196  pc=00000024  inst=20a5ffff  ealu=00000000
                 200  pc=00000028  inst=34a8ffff  ealu=00000001
                 204  pc=0000002c  inst=39085555  ealu=0000ffff
                 208  pc=00000030  inst=2009ffff  ealu=0000aaaa
                 212  pc=00000034  inst=312affff  ealu=ffffffff
                 216  pc=00000038  inst=01493025  ealu=0000ffff
                 220  pc=0000003c  inst=01494026  ealu=ffffffff
                 224  pc=00000040  inst=01463824  ealu=ffff0000
                 228  pc=00000044  inst=10a00003  ealu=0000ffff
                 232  pc=00000048  inst=00000000  ealu=00000001
                 236  pc=0000004c  inst=08000008  ealu=00000000
                 240  pc=00000020  inst=00000000  ealu=00000000
                 244  pc=00000024  inst=20a5ffff  ealu=00000000
                 248  pc=00000028  inst=34a8ffff  ealu=00000000
                 252  pc=0000002c  inst=39085555  ealu=0000ffff
                 256  pc=00000030  inst=2009ffff  ealu=0000aaaa
                 260  pc=00000034  inst=312affff  ealu=ffffffff
                 264  pc=00000038  inst=01493025  ealu=0000ffff
                 268  pc=0000003c  inst=01494026  ealu=ffffffff
                 272  pc=00000040  inst=01463824  ealu=ffff0000
                 276  pc=00000044  inst=10a00003  ealu=0000ffff
                 280  pc=00000050  inst=00000000  ealu=00000000
                 284  pc=00000054  inst=2005ffff  ealu=00000000
                 288  pc=00000058  inst=000543c0  ealu=ffffffff
                 292  pc=0000005c  inst=00084400  ealu=ffff8000
                 296  pc=00000060  inst=00084403  ealu=80000000
                 300  pc=00000064  inst=000843c2  ealu=ffff8000
                 304  pc=00000068  inst=08000019  ealu=0001ffff
                 308  pc=00000064  inst=00000000  ealu=00000000
                 312  pc=00000068  inst=08000019  ealu=00000000
                 316  pc=00000064  inst=00000000  ealu=00000000
                 320  pc=00000068  inst=08000019  ealu=00000000
                 324  pc=00000064  inst=00000000  ealu=00000000
                 328  pc=00000068  inst=08000019  ealu=00000000
                 332  pc=00000064  inst=00000000  ealu=00000000
                 336  pc=00000068  inst=08000019  ealu=00000000
                 340  pc=00000064  inst=00000000  ealu=00000000
                 344  pc=00000068  inst=08000019  ealu=00000000
                 348  pc=00000064  inst=00000000  ealu=00000000
                 352  pc=00000068  inst=08000019  ealu=00000000
                 356  pc=00000064  inst=00000000  ealu=00000000
                 360  pc=00000068  inst=08000019  ealu=00000000
                 364  pc=00000064  inst=00000000  ealu=00000000
                 368  pc=00000068  inst=08000019  ealu=00000000
                 372  pc=00000064  inst=00000000  ealu=00000000
                 376  pc=00000068  inst=08000019  ealu=00000000
                 380  pc=00000064  inst=00000000  ealu=00000000
                 384  pc=00000068  inst=08000019  ealu=00000000
                 388  pc=00000064  inst=00000000  ealu=00000000
                 392  pc=00000068  inst=08000019  ealu=00000000
                 396  pc=00000064  inst=00000000  ealu=00000000
                 400  pc=00000068  inst=08000019  ealu=00000000
                 404  pc=00000064  inst=00000000  ealu=00000000
                 408  pc=00000068  inst=08000019  ealu=00000000
                 412  pc=00000064  inst=00000000  ealu=00000000
                 416  pc=00000068  inst=08000019  ealu=00000000
                 420  pc=00000064  inst=00000000  ealu=00000000
                 424  pc=00000068  inst=08000019  ealu=00000000
                 428  pc=00000064  inst=00000000  ealu=00000000
                 432  pc=00000068  inst=08000019  ealu=00000000
                 436  pc=00000064  inst=00000000  ealu=00000000
                 440  pc=00000068  inst=08000019  ealu=00000000
                 444  pc=00000064  inst=00000000  ealu=00000000
                 448  pc=00000068  inst=08000019  ealu=00000000
                 452  pc=00000064  inst=00000000  ealu=00000000
                 456  pc=00000068  inst=08000019  ealu=00000000
                 460  pc=00000064  inst=00000000  ealu=00000000
                 464  pc=00000068  inst=08000019  ealu=00000000
                 468  pc=00000064  inst=00000000  ealu=00000000
                 472  pc=00000068  inst=08000019  ealu=00000000
                 476  pc=00000064  inst=00000000  ealu=00000000
                 480  pc=00000068  inst=08000019  ealu=00000000
                 484  pc=00000064  inst=00000000  ealu=00000000
                 488  pc=00000068  inst=08000019  ealu=00000000
                 492  pc=00000064  inst=00000000  ealu=00000000
                 496  pc=00000068  inst=08000019  ealu=00000000
                 500  pc=00000064  inst=00000000  ealu=00000000
                 504  pc=00000068  inst=08000019  ealu=00000000
                 508  pc=00000064  inst=00000000  ealu=00000000
                 512  pc=00000068  inst=08000019  ealu=00000000
                 516  pc=00000064  inst=00000000  ealu=00000000
                 520  pc=00000068  inst=08000019  ealu=00000000
                 524  pc=00000064  inst=00000000  ealu=00000000
                 528  pc=00000068  inst=08000019  ealu=00000000
                 532  pc=00000064  inst=00000000  ealu=00000000
                 536  pc=00000068  inst=08000019  ealu=00000000
                 540  pc=00000064  inst=00000000  ealu=00000000
                 544  pc=00000068  inst=08000019  ealu=00000000
                 548  pc=00000064  inst=00000000  ealu=00000000
                 552  pc=00000068  inst=08000019  ealu=00000000
                 556  pc=00000064  inst=00000000  ealu=00000000
                 560  pc=00000068  inst=08000019  ealu=00000000
                 564  pc=00000064  inst=00000000  ealu=00000000
                 568  pc=00000068  inst=08000019  ealu=00000000
                 572  pc=00000064  inst=00000000  ealu=00000000
                 576  pc=00000068  inst=08000019  ealu=00000000
                 580  pc=00000064  inst=00000000  ealu=00000000
                 584  pc=00000068  inst=08000019  ealu=00000000
                 588  pc=00000064  inst=00000000  ealu=00000000
                 592  pc=00000068  inst=08000019  ealu=00000000
                 596  pc=00000064  inst=00000000  ealu=00000000
                 600  pc=00000068  inst=08000019  ealu=00000000
                 604  pc=00000064  inst=00000000  ealu=00000000
                 608  pc=00000068  inst=08000019  ealu=00000000
                 612  pc=00000064  inst=00000000  ealu=00000000
                 616  pc=00000068  inst=08000019  ealu=00000000
                 620  pc=00000064  inst=00000000  ealu=00000000
                 624  pc=00000068  inst=08000019  ealu=00000000
                 628  pc=00000064  inst=00000000  ealu=00000000
                 632  pc=00000068  inst=08000019  ealu=00000000
                 636  pc=00000064  inst=00000000  ealu=00000000
                 640  pc=00000068  inst=08000019  ealu=00000000
                 644  pc=00000064  inst=00000000  ealu=00000000
                 648  pc=00000068  inst=08000019  ealu=00000000
                 652  pc=00000064  inst=00000000  ealu=00000000
                 656  pc=00000068  inst=08000019  ealu=00000000
                 660  pc=00000064  inst=00000000  ealu=00000000
                 664  pc=00000068  inst=08000019  ealu=00000000
                 668  pc=00000064  inst=00000000  ealu=00000000
                 672  pc=00000068  inst=08000019  ealu=00000000
                 676  pc=00000064  inst=00000000  ealu=00000000
                 680  pc=00000068  inst=08000019  ealu=00000000
                 684  pc=00000064  inst=00000000  ealu=00000000
                 688  pc=00000068  inst=08000019  ealu=00000000
                 692  pc=00000064  inst=00000000  ealu=00000000
                 696  pc=00000068  inst=08000019  ealu=00000000
                 700  pc=00000064  inst=00000000  ealu=00000000
                 704  pc=00000068  inst=08000019  ealu=00000000
                 708  pc=00000064  inst=00000000  ealu=00000000
                 712  pc=00000068  inst=08000019  ealu=00000000
                 716  pc=00000064  inst=00000000  ealu=00000000
                 720  pc=00000068  inst=08000019  ealu=00000000
                 724  pc=00000064  inst=00000000  ealu=00000000
                 728  pc=00000068  inst=08000019  ealu=00000000
                 732  pc=00000064  inst=00000000  ealu=00000000
                 736  pc=00000068  inst=08000019  ealu=00000000
                 740  pc=00000064  inst=00000000  ealu=00000000
                 744  pc=00000068  inst=08000019  ealu=00000000
                 748  pc=00000064  inst=00000000  ealu=00000000
                 752  pc=00000068  inst=08000019  ealu=00000000
                 756  pc=00000064  inst=00000000  ealu=00000000
                 760  pc=00000068  inst=08000019  ealu=00000000
                 764  pc=00000064  inst=00000000  ealu=00000000
                 768  pc=00000068  inst=08000019  ealu=00000000
                 772  pc=00000064  inst=00000000  ealu=00000000
                 776  pc=00000068  inst=08000019  ealu=00000000
                 780  pc=00000064  inst=00000000  ealu=00000000
                 784  pc=00000068  inst=08000019  ealu=00000000
                 788  pc=00000064  inst=00000000  ealu=00000000
                 792  pc=00000068  inst=08000019  ealu=00000000
                 796  pc=00000064  inst=00000000  ealu=00000000
                 800  pc=00000068  inst=08000019  ealu=00000000
                 804  pc=00000064  inst=00000000  ealu=00000000
                 808  pc=00000068  inst=08000019  ealu=00000000
                 812  pc=00000064  inst=00000000  ealu=00000000
                 816  pc=00000068  inst=08000019  ealu=00000000
                 820  pc=00000064  inst=00000000  ealu=00000000
                 824  pc=00000068  inst=08000019  ealu=00000000
                 828  pc=00000064  inst=00000000  ealu=00000000
                 832  pc=00000068  inst=08000019  ealu=00000000
                 836  pc=00000064  inst=00000000  ealu=00000000
                 840  pc=00000068  inst=08000019  ealu=00000000
                 844  pc=00000064  inst=00000000  ealu=00000000
                 848  pc=00000068  inst=08000019  ealu=00000000
                 852  pc=00000064  inst=00000000  ealu=00000000
                 856  pc=00000068  inst=08000019  ealu=00000000
                 860  pc=00000064  inst=00000000  ealu=00000000
                 864  pc=00000068  inst=08000019  ealu=00000000
                 868  pc=00000064  inst=00000000  ealu=00000000
                 872  pc=00000068  inst=08000019  ealu=00000000
                 876  pc=00000064  inst=00000000  ealu=00000000
                 880  pc=00000068  inst=08000019  ealu=00000000
                 884  pc=00000064  inst=00000000  ealu=00000000
                 888  pc=00000068  inst=08000019  ealu=00000000
                 892  pc=00000064  inst=00000000  ealu=00000000
                 896  pc=00000068  inst=08000019  ealu=00000000
                 900  pc=00000064  inst=00000000  ealu=00000000
                 904  pc=00000068  inst=08000019  ealu=00000000
                 908  pc=00000064  inst=00000000  ealu=00000000
                 912  pc=00000068  inst=08000019  ealu=00000000
                 916  pc=00000064  inst=00000000  ealu=00000000
                 920  pc=00000068  inst=08000019  ealu=00000000
                 924  pc=00000064  inst=00000000  ealu=00000000
                 928  pc=00000068  inst=08000019  ealu=00000000
                 932  pc=00000064  inst=00000000  ealu=00000000
                 936  pc=00000068  inst=08000019  ealu=00000000
                 940  pc=00000064  inst=00000000  ealu=00000000
                 944  pc=00000068  inst=08000019  ealu=00000000
                 948  pc=00000064  inst=00000000  ealu=00000000
                 952  pc=00000068  inst=08000019  ealu=00000000
                 956  pc=00000064  inst=00000000  ealu=00000000
                 960  pc=00000068  inst=08000019  ealu=00000000
                 964  pc=00000064  inst=00000000  ealu=00000000
                 968  pc=00000068  inst=08000019  ealu=00000000
                 972  pc=00000064  inst=00000000  ealu=00000000
                 976  pc=00000068  inst=08000019  ealu=00000000
                 980  pc=00000064  inst=00000000  ealu=00000000
                 984  pc=00000068  inst=08000019  ealu=00000000
                 988  pc=00000064  inst=00000000  ealu=00000000
                 992  pc=00000068  inst=08000019  ealu=00000000
                 996  pc=00000064  inst=00000000  ealu=00000000
                1000  pc=00000068  inst=08000019  ealu=00000000
                1004  pc=00000064  inst=00000000  ealu=00000000
                1008  pc=00000068  inst=08000019  ealu=00000000
                1012  pc=00000064  inst=00000000  ealu=00000000
                1016  pc=00000068  inst=08000019  ealu=00000000
                1020  pc=00000064  inst=00000000  ealu=00000000
                1024  pc=00000068  inst=08000019  ealu=00000000
                1028  pc=00000064  inst=00000000  ealu=00000000
                1032  pc=00000068  inst=08000019  ealu=00000000
                1036  pc=00000064  inst=00000000  ealu=00000000
                1040  pc=00000068  inst=08000019  ealu=00000000
                1044  pc=00000064  inst=00000000  ealu=00000000
                1048  pc=00000068  inst=08000019  ealu=00000000
                1052  pc=00000064  inst=00000000  ealu=00000000
                1056  pc=00000068  inst=08000019  ealu=00000000
                1060  pc=00000064  inst=00000000  ealu=00000000
                1064  pc=00000068  inst=08000019  ealu=00000000
                1068  pc=00000064  inst=00000000  ealu=00000000
                1072  pc=00000068  inst=08000019  ealu=00000000
                1076  pc=00000064  inst=00000000  ealu=00000000
                1080  pc=00000068  inst=08000019  ealu=00000000
                1084  pc=00000064  inst=00000000  ealu=00000000
                1088  pc=00000068  inst=08000019  ealu=00000000
                1092  pc=00000064  inst=00000000  ealu=00000000
                1096  pc=00000068  inst=08000019  ealu=00000000
                1100  pc=00000064  inst=00000000  ealu=00000000
                1104  pc=00000068  inst=08000019  ealu=00000000
                1108  pc=00000064  inst=00000000  ealu=00000000
                1112  pc=00000068  inst=08000019  ealu=00000000
                1116  pc=00000064  inst=00000000  ealu=00000000
                1120  pc=00000068  inst=08000019  ealu=00000000
                1124  pc=00000064  inst=00000000  ealu=00000000
                1128  pc=00000068  inst=08000019  ealu=00000000
                1132  pc=00000064  inst=00000000  ealu=00000000
                1136  pc=00000068  inst=08000019  ealu=00000000
                1140  pc=00000064  inst=00000000  ealu=00000000
                1144  pc=00000068  inst=08000019  ealu=00000000
                1148  pc=00000064  inst=00000000  ealu=00000000
                1152  pc=00000068  inst=08000019  ealu=00000000
                1156  pc=00000064  inst=00000000  ealu=00000000
                1160  pc=00000068  inst=08000019  ealu=00000000
                1164  pc=00000064  inst=00000000  ealu=00000000
                1168  pc=00000068  inst=08000019  ealu=00000000
                1172  pc=00000064  inst=00000000  ealu=00000000
                1176  pc=00000068  inst=08000019  ealu=00000000
                1180  pc=00000064  inst=00000000  ealu=00000000
                1184  pc=00000068  inst=08000019  ealu=00000000
                1188  pc=00000064  inst=00000000  ealu=00000000
                1192  pc=00000068  inst=08000019  ealu=00000000
                1196  pc=00000064  inst=00000000  ealu=00000000
                1200  pc=00000068  inst=08000019  ealu=00000000
                1204  pc=00000064  inst=00000000  ealu=00000000
                1208  pc=00000068  inst=08000019  ealu=00000000
                1212  pc=00000064  inst=00000000  ealu=00000000
                1216  pc=00000068  inst=08000019  ealu=00000000
                1220  pc=00000064  inst=00000000  ealu=00000000
                1224  pc=00000068  inst=08000019  ealu=00000000
                1228  pc=00000064  inst=00000000  ealu=00000000
                1232  pc=00000068  inst=08000019  ealu=00000000
                1236  pc=00000064  inst=00000000  ealu=00000000
                1240  pc=00000068  inst=08000019  ealu=00000000
                1244  pc=00000064  inst=00000000  ealu=00000000
                1248  pc=00000068  inst=08000019  ealu=00000000
                1252  pc=00000064  inst=00000000  ealu=00000000
                1256  pc=00000068  inst=08000019  ealu=00000000
                1260  pc=00000064  inst=00000000  ealu=00000000
                1264  pc=00000068  inst=08000019  ealu=00000000
                1268  pc=00000064  inst=00000000  ealu=00000000
                1272  pc=00000068  inst=08000019  ealu=00000000
                1276  pc=00000064  inst=00000000  ealu=00000000
                1280  pc=00000068  inst=08000019  ealu=00000000
                1284  pc=00000064  inst=00000000  ealu=00000000
                1288  pc=00000068  inst=08000019  ealu=00000000
                1292  pc=00000064  inst=00000000  ealu=00000000
                1296  pc=00000068  inst=08000019  ealu=00000000
                1300  pc=00000064  inst=00000000  ealu=00000000
                1304  pc=00000068  inst=08000019  ealu=00000000
                1308  pc=00000064  inst=00000000  ealu=00000000
                1312  pc=00000068  inst=08000019  ealu=00000000
                1316  pc=00000064  inst=00000000  ealu=00000000
                1320  pc=00000068  inst=08000019  ealu=00000000
                1324  pc=00000064  inst=00000000  ealu=00000000
                1328  pc=00000068  inst=08000019  ealu=00000000
                1332  pc=00000064  inst=00000000  ealu=00000000
                1336  pc=00000068  inst=08000019  ealu=00000000
                1340  pc=00000064  inst=00000000  ealu=00000000
                1344  pc=00000068  inst=08000019  ealu=00000000
                1348  pc=00000064  inst=00000000  ealu=00000000
                1352  pc=00000068  inst=08000019  ealu=00000000
                1356  pc=00000064  inst=00000000  ealu=00000000
                1360  pc=00000068  inst=08000019  ealu=00000000
                1364  pc=00000064  inst=00000000  ealu=00000000
                1368  pc=00000068  inst=08000019  ealu=00000000
                1372  pc=00000064  inst=00000000  ealu=00000000
                1376  pc=00000068  inst=08000019  ealu=00000000
                1380  pc=00000064  inst=00000000  ealu=00000000
                1384  pc=00000068  inst=08000019  ealu=00000000
                1388  pc=00000064  inst=00000000  ealu=00000000
                1392  pc=00000068  inst=08000019  ealu=00000000
                1396  pc=00000064  inst=00000000  ealu=00000000
                1400  pc=00000068  inst=08000019  ealu=00000000
                1404  pc=00000064  inst=00000000  ealu=00000000
                1408  pc=00000068  inst=08000019  ealu=00000000
                1412  pc=00000064  inst=00000000  ealu=00000000
                1416  pc=00000068  inst=08000019  ealu=00000000
                1420  pc=00000064  inst=00000000  ealu=00000000
                1424  pc=00000068  inst=08000019  ealu=00000000
                1428  pc=00000064  inst=00000000  ealu=00000000
                1432  pc=00000068  inst=08000019  ealu=00000000
                1436  pc=00000064  inst=00000000  ealu=00000000
                1440  pc=00000068  inst=08000019  ealu=00000000
                1444  pc=00000064  inst=00000000  ealu=00000000
                1448  pc=00000068  inst=08000019  ealu=00000000
                1452  pc=00000064  inst=00000000  ealu=00000000
                1456  pc=00000068  inst=08000019  ealu=00000000
                1460  pc=00000064  inst=00000000  ealu=00000000
                1464  pc=00000068  inst=08000019  ealu=00000000
                1468  pc=00000064  inst=00000000  ealu=00000000
                1472  pc=00000068  inst=08000019  ealu=00000000
                1476  pc=00000064  inst=00000000  ealu=00000000
                1480  pc=00000068  inst=08000019  ealu=00000000
                1484  pc=00000064  inst=00000000  ealu=00000000
                1488  pc=00000068  inst=08000019  ealu=00000000
                1492  pc=00000064  inst=00000000  ealu=00000000
                1496  pc=00000068  inst=08000019  ealu=00000000
                1500  pc=00000064  inst=00000000  ealu=00000000
                1504  pc=00000068  inst=08000019  ealu=00000000
                1508  pc=00000064  inst=00000000  ealu=00000000
                1512  pc=00000068  inst=08000019  ealu=00000000
                1516  pc=00000064  inst=00000000  ealu=00000000
                1520  pc=00000068  inst=08000019  ealu=00000000
                1524  pc=00000064  inst=00000000  ealu=00000000
                1528  pc=00000068  inst=08000019  ealu=00000000
                1532  pc=00000064  inst=00000000  ealu=00000000
                1536  pc=00000068  inst=08000019  ealu=00000000
                1540  pc=00000064  inst=00000000  ealu=00000000
                1544  pc=00000068  inst=08000019  ealu=00000000
                1548  pc=00000064  inst=00000000  ealu=00000000
                1552  pc=00000068  inst=08000019  ealu=00000000
                1556  pc=00000064  inst=00000000  ealu=00000000
                1560  pc=00000068  inst=08000019  ealu=00000000
                1564  pc=00000064  inst=00000000  ealu=00000000
                1568  pc=00000068  inst=08000019  ealu=00000000
                1572  pc=00000064  inst=00000000  ealu=00000000
                1576  pc=00000068  inst=08000019  ealu=00000000
                1580  pc=00000064  inst=00000000  ealu=00000000
                1584  pc=00000068  inst=08000019  ealu=00000000
                1588  pc=00000064  inst=00000000  ealu=00000000
                1592  pc=00000068  inst=08000019  ealu=00000000
                1596  pc=00000064  inst=00000000  ealu=00000000
                1600  pc=00000068  inst=08000019  ealu=00000000
                1604  pc=00000064  inst=00000000  ealu=00000000
                1608  pc=00000068  inst=08000019  ealu=00000000
                1612  pc=00000064  inst=00000000  ealu=00000000
                1616  pc=00000068  inst=08000019  ealu=00000000
                1620  pc=00000064  inst=00000000  ealu=00000000
                1624  pc=00000068  inst=08000019  ealu=00000000
                1628  pc=00000064  inst=00000000  ealu=00000000
                1632  pc=00000068  inst=08000019  ealu=00000000
                1636  pc=00000064  inst=00000000  ealu=00000000
                1640  pc=00000068  inst=08000019  ealu=00000000
                1644  pc=00000064  inst=00000000  ealu=00000000
                1648  pc=00000068  inst=08000019  ealu=00000000
                1652  pc=00000064  inst=00000000  ealu=00000000
                1656  pc=00000068  inst=08000019  ealu=00000000
                1660  pc=00000064  inst=00000000  ealu=00000000
                1664  pc=00000068  inst=08000019  ealu=00000000
                1668  pc=00000064  inst=00000000  ealu=00000000
                1672  pc=00000068  inst=08000019  ealu=00000000
                1676  pc=00000064  inst=00000000  ealu=00000000
                1680  pc=00000068  inst=08000019  ealu=00000000
                1684  pc=00000064  inst=00000000  ealu=00000000
                1688  pc=00000068  inst=08000019  ealu=00000000
                1692  pc=00000064  inst=00000000  ealu=00000000
                1696  pc=00000068  inst=08000019  ealu=00000000
                1700  pc=00000064  inst=00000000  ealu=00000000
                1704  pc=00000068  inst=08000019  ealu=00000000
                1708  pc=00000064  inst=00000000  ealu=00000000
                1712  pc=00000068  inst=08000019  ealu=00000000
                1716  pc=00000064  inst=00000000  ealu=00000000
                1720  pc=00000068  inst=08000019  ealu=00000000
                1724  pc=00000064  inst=00000000  ealu=00000000
                1728  pc=00000068  inst=08000019  ealu=00000000
                1732  pc=00000064  inst=00000000  ealu=00000000
                1736  pc=00000068  inst=08000019  ealu=00000000
                1740  pc=00000064  inst=00000000  ealu=00000000
                1744  pc=00000068  inst=08000019  ealu=00000000
                1748  pc=00000064  inst=00000000  ealu=00000000
                1752  pc=00000068  inst=08000019  ealu=00000000
                1756  pc=00000064  inst=00000000  ealu=00000000
                1760  pc=00000068  inst=08000019  ealu=00000000
                1764  pc=00000064  inst=00000000  ealu=00000000
                1768  pc=00000068  inst=08000019  ealu=00000000
                1772  pc=00000064  inst=00000000  ealu=00000000
                1776  pc=00000068  inst=08000019  ealu=00000000
                1780  pc=00000064  inst=00000000  ealu=00000000
                1784  pc=00000068  inst=08000019  ealu=00000000
                1788  pc=00000064  inst=00000000  ealu=00000000
                1792  pc=00000068  inst=08000019  ealu=00000000
                1796  pc=00000064  inst=00000000  ealu=00000000
                1800  pc=00000068  inst=08000019  ealu=00000000
                1804  pc=00000064  inst=00000000  ealu=00000000
                1808  pc=00000068  inst=08000019  ealu=00000000
                1812  pc=00000064  inst=00000000  ealu=00000000
                1816  pc=00000068  inst=08000019  ealu=00000000
                1820  pc=00000064  inst=00000000  ealu=00000000
                1824  pc=00000068  inst=08000019  ealu=00000000
                1828  pc=00000064  inst=00000000  ealu=00000000
                1832  pc=00000068  inst=08000019  ealu=00000000
                1836  pc=00000064  inst=00000000  ealu=00000000
                1840  pc=00000068  inst=08000019  ealu=00000000
                1844  pc=00000064  inst=00000000  ealu=00000000
                1848  pc=00000068  inst=08000019  ealu=00000000
                1852  pc=00000064  inst=00000000  ealu=00000000
                1856  pc=00000068  inst=08000019  ealu=00000000
                1860  pc=00000064  inst=00000000  ealu=00000000
                1864  pc=00000068  inst=08000019  ealu=00000000
                1868  pc=00000064  inst=00000000  ealu=00000000
                1872  pc=00000068  inst=08000019  ealu=00000000
                1876  pc=00000064  inst=00000000  ealu=00000000
                1880  pc=00000068  inst=08000019  ealu=00000000
                1884  pc=00000064  inst=00000000  ealu=00000000
                1888  pc=00000068  inst=08000019  ealu=00000000
                1892  pc=00000064  inst=00000000  ealu=00000000
                1896  pc=00000068  inst=08000019  ealu=00000000
                1900  pc=00000064  inst=00000000  ealu=00000000
                1904  pc=00000068  inst=08000019  ealu=00000000
                1908  pc=00000064  inst=00000000  ealu=00000000
                1912  pc=00000068  inst=08000019  ealu=00000000
                1916  pc=00000064  inst=00000000  ealu=00000000
                1920  pc=00000068  inst=08000019  ealu=00000000
                1924  pc=00000064  inst=00000000  ealu=00000000
                1928  pc=00000068  inst=08000019  ealu=00000000
                1932  pc=00000064  inst=00000000  ealu=00000000
                1936  pc=00000068  inst=08000019  ealu=00000000
                1940  pc=00000064  inst=00000000  ealu=00000000
                1944  pc=00000068  inst=08000019  ealu=00000000
                1948  pc=00000064  inst=00000000  ealu=00000000
                1952  pc=00000068  inst=08000019  ealu=00000000
                1956  pc=00000064  inst=00000000  ealu=00000000
                1960  pc=00000068  inst=08000019  ealu=00000000
                1964  pc=00000064  inst=00000000  ealu=00000000
                1968  pc=00000068  inst=08000019  ealu=00000000
                1972  pc=00000064  inst=00000000  ealu=00000000
                1976  pc=00000068  inst=08000019  ealu=00000000
                1980  pc=00000064  inst=00000000  ealu=00000000
                1984  pc=00000068  inst=08000019  ealu=00000000
                1988  pc=00000064  inst=00000000  ealu=00000000
                1992  pc=00000068  inst=08000019  ealu=00000000
                1996  pc=00000064  inst=00000000  ealu=00000000
                2000  pc=00000068  inst=08000019  ealu=00000000
                2004  pc=00000064  inst=00000000  ealu=00000000
                2008  pc=00000068  inst=08000019  ealu=00000000
                2012  pc=00000064  inst=00000000  ealu=00000000
                2016  pc=00000068  inst=08000019  ealu=00000000
                2020  pc=00000064  inst=00000000  ealu=00000000
                2024  pc=00000068  inst=08000019  ealu=00000000
                2028  pc=00000064  inst=00000000  ealu=00000000
                2032  pc=00000068  inst=08000019  ealu=00000000
                2036  pc=00000064  inst=00000000  ealu=00000000
                2040  pc=00000068  inst=08000019  ealu=00000000
                2044  pc=00000064  inst=00000000  ealu=00000000
                2048  pc=00000068  inst=08000019  ealu=00000000
                2052  pc=00000064  inst=00000000  ealu=00000000
                2056  pc=00000068  inst=08000019  ealu=00000000
                2060  pc=00000064  inst=00000000  ealu=00000000
                2064  pc=00000068  inst=08000019  ealu=00000000
                2068  pc=00000064  inst=00000000  ealu=00000000
                2072  pc=00000068  inst=08000019  ealu=00000000
                2076  pc=00000064  inst=00000000  ealu=00000000
                2080  pc=00000068  inst=08000019  ealu=00000000
                2084  pc=00000064  inst=00000000  ealu=00000000
                2088  pc=00000068  inst=08000019  ealu=00000000
                2092  pc=00000064  inst=00000000  ealu=00000000
                2096  pc=00000068  inst=08000019  ealu=00000000
                2100  pc=00000064  inst=00000000  ealu=00000000
                2104  pc=00000068  inst=08000019  ealu=00000000
                2108  pc=00000064  inst=00000000  ealu=00000000
                2112  pc=00000068  inst=08000019  ealu=00000000
                2116  pc=00000064  inst=00000000  ealu=00000000
                2120  pc=00000068  inst=08000019  ealu=00000000
                2124  pc=00000064  inst=00000000  ealu=00000000
                2128  pc=00000068  inst=08000019  ealu=00000000
                2132  pc=00000064  inst=00000000  ealu=00000000
                2136  pc=00000068  inst=08000019  ealu=00000000
                2140  pc=00000064  inst=00000000  ealu=00000000
                2144  pc=00000068  inst=08000019  ealu=00000000
                2148  pc=00000064  inst=00000000  ealu=00000000
                2152  pc=00000068  inst=08000019  ealu=00000000
                2156  pc=00000064  inst=00000000  ealu=00000000
                2160  pc=00000068  inst=08000019  ealu=00000000
                2164  pc=00000064  inst=00000000  ealu=00000000
                2168  pc=00000068  inst=08000019  ealu=00000000
                2172  pc=00000064  inst=00000000  ealu=00000000
                2176  pc=00000068  inst=08000019  ealu=00000000
                2180  pc=00000064  inst=00000000  ealu=00000000
                2184  pc=00000068  inst=08000019  ealu=00000000
                2188  pc=00000064  inst=00000000  ealu=00000000
                2192  pc=00000068  inst=08000019  ealu=00000000
                2196  pc=00000064  inst=00000000  ealu=00000000
                2200  pc=00000068  inst=08000019  ealu=00000000
                2204  pc=00000064  inst=00000000  ealu=00000000
